Cluster No. : 15

+++++++++++++++++++++++++++++++++++
	Predicted University : 
+++++++++++++++++++++++++++++++++++

'Roosevelt University'
'Fairleigh Dickinson University'
'City University of Seattle'

+++++++++++++++++++++++++++++++++++
	Original University :
+++++++++++++++++++++++++++++++++++

California State University  Fullerton