Cluster No. : 6

+++++++++++++++++++++++++++++++++++
	Predicted University : 
+++++++++++++++++++++++++++++++++++

'Texas A&M University Corpus Christi'
'California State University  Long Beach'
'California State University  Sacramento'
'Pace University'
'University of Scranton'
'New York Institute of Technology'
'Dallas Baptist University'
'Gannon University'

+++++++++++++++++++++++++++++++++++
	Original University :
+++++++++++++++++++++++++++++++++++

New Jersey Institute of Technology