Cluster No. : 14

+++++++++++++++++++++++++++++++++++
	Predicted University : 
+++++++++++++++++++++++++++++++++++

'California State University  East Bay'
'Texas State University-San Marcos'
'University of Windsor'
'California State University  Sacramento'
'New York Institute of Technology'
'State University of New York  Albany'
'Wright State University'

+++++++++++++++++++++++++++++++++++
	Original University :
+++++++++++++++++++++++++++++++++++

Northeastern University